{

	"БазаПроверкиУстановки.СтрокаПодключения": "/F\"E:\\devops\\base\\setup\"",
	"БазаПроверкиУстановки.ИмяПользователя": "Администратор",
	"БазаПроверкиУстановки.ПарольПользователя": "",

	"БазаПроверкиОбновленияОбщая.СтрокаПодключения": "/IBConnectionString\"Srvr=192.168.65.118:21541; Ref='FPGU_ReleaseCheck'\"",
	"БазаПроверкиОбновленияОбщая.ИмяПользователя": "Администратор",
	"БазаПроверкиОбновленияОбщая.ПарольПользователя": "",
	"БазаПроверкиОбновленияОбщая.ВерсияПлатформы": "8.3.12.1529",

	"БазаПроверкиОбновления.СтрокаПодключения": "/F\"E:\\devops\\base\\update\"",
	"БазаПроверкиОбновления.ИмяПользователя": "Администратор",
	"БазаПроверкиОбновления.ПарольПользователя": "",

	"БазаПоставки.СтрокаПодключения": "/F\"C:\\work\\base\\ФП Поставка\"",
	"БазаПоставки.ИмяПользователя": "Администратор",
	"БазаПоставки.ПарольПользователя": "",

	"БазаПроверкиУстановки.ФайлВыгрузки": "E:\\devops\\dt\\БГУ\\2.0.59.8\\1Cv8.dt",
	"БазаПроверкиОбновления.ФайлВыгрузки": "E:\\devops\\dt\\РелизЧек\\1.0.15.1.dt",

	"БазаПроверкиУстановки.ФайлКонфигурации": "E:\\devops\\cf\\БГУ\\2.0.59.8\\1Cv8.cf",

	"БазаПроверкиУстановки.КаталогВыгрузкиФайловКонфигурации": "E:\\devops\\xml\\setup",
	"БазаПроверкиОбновления.КаталогВыгрузкиФайловКонфигурации": "E:\\devops\\xml\\update",
	"БазаПоставки.КаталогВыгрузкиФайловКонфигурации": "E:\\devops\\xml\\release",

	"БазаПроверкиУстановки.ПодсистемыДляОтметки": ["Закупки", "ПриниматьОбъединением", "ФинансовоеПланирование"],
	"БазаПроверкиУстановки.ИмяФайлаНастроекОбъединения": "E:\\devops\\xml\\mergeconfig\\БазаПроверкиУстановки.xml",
	"БазаПроверкиУстановки.ИмяФайлаНастроекОбъединенияРазрешитьИзменения": "E:\\devops\\xml\\mergeconfig\\БазаПроверкиУстановки_РазрешитьИзменения.xml",
	"БазаПроверкиОбновления.ИмяФайлаНастроекОбъединенияРазрешитьИзмененияИОбновить": "E:\\devops\\xml\\mergeconfig\\БазаПроверкиУстановки_РазрешитьИзмененияИОбновитьБГУ.xml",

	"БазаПроверкиОбновления.ПодсистемыДляОтметки_ОбновляемойКонфигурации": ["Закупки", "ФинансовоеПланирование"],
	"БазаПроверкиОбновления.ПодсистемыДляОтметки_КонфигурацииОбновления": ["Закупки", "ПриниматьОбъединением", "ФинансовоеПланирование"],
	"БазаПроверкиОбновления.ИмяФайлаНастроекОбъединения": "E:\\devops\\xml\\mergeconfig\\БазаПроверкиОбновления.xml",


	"БазаПоставки.ФайлПоставки": "E:\\devops\\cf\\ФП\\1.0.16.1\\1Cv8.cf",
	"БазаПоставки.ФайлОбновления": "E:\\devops\\cf\\ФП\\1.0.16.1\\1Cv8.cfu",
	"БазаПоставки.ДистрибутивыДляОбновления": ["E:\\devops\\cf\\ФП\\1.0.15.1\\1Cv8.cf"],


	"БазаРазработки.СтрокаПодключения": "/FC:\\work\\base\\ФП",
	"БазаРазработки.ИмяПользователя": "Администратор",
	"БазаРазработки.ПарольПользователя": "",
	"БазаРазработки.Хранилище": "sbautopilot2.softbalance.spb.ru:36542/fp_develop",
	"БазаРазработки.ИмяПользователяХранилища": "СБ_Пашутин",
	"БазаРазработки.ПарольПользователяХранилища": "",
	"БазаРазработки.ВерсияПлатформы": "8.3.12.1529"



}